…
``` r
x <- unique(split_keys[which(!(split_keys %in% bib$BIBTEXKEY))])
# metadata %>% select(BibtexKey, Source) %>% filter(!(BibtexKey %in% split_keys))
```

Which are the bibtex file that are not in the BDPROTO data? Some of
these are included in the `Comments` field.

``` r
bib[which(!(bib$BIBTEXKEY %in% split_keys)),] %>% select(BIBTEXKEY) %>% arrange(BIBTEXKEY)
```

    ## # A tibble: 57 × 1
    ##    BIBTEXKEY                
    ##    <chr>                    
    ##  1 aikhenvald2014global     
    ##  2 andersen2003language     
    ##  3 antonsen2002runes        
    ##  4 Balee2000                
    ##  5 baugh1993history         
    ##  6 bellwood2007prehistory   
    ##  7 bengtson2008materials    
    ##  8 black1980                
    ##  9 bomhard2008reconstructing
    ## 10 brown2010concise         
    ## # … with 47 more rows
…
Check whether the segments in SegBo are also reported in
[PHOIBLE](https://phoible.org). At the current time, this rhotic segment
reported by Mahanta (2012) in Assamese (ID 285, assa1263) is under
investigation (it is reported as a aspirated rhotic from Sanskrit).

``` r
phoible <- read_csv('https://raw.githubusercontent.com/phoible/dev/master/data/phoible.csv')
phoible_segments <- phoible %>% select(Phoneme) %>% distinct()
bdproto_phonemes <- bdproto %>% select(Phoneme) %>% distinct()
bdproto_phonemes[which(!(bdproto_phonemes$Phoneme %in% phoible_segments$Phoneme)),]
```

    ## # A tibble: 153 × 1
    ##    Phoneme
    ##    <chr>  
    ##  1 xʷʲ    
    ##  2 i̝      
    ##  3 u̝      
    ##  4 ǁ      
    ##  5 ǀ      
    ##  6 ǂ      
    ##  7 ǂ͇      
    ##  8 ǁ̟      
    ##  9 dʰ     
    ## 10 mʰ     
    ## # … with 143 more rows
