…
    ## 
    ## FALSE  TRUE 
    ##    84    38

``` r
# Which ones?
bdproto.in.glottolog <- bdproto.glottocodes[which(bdproto.glottocodes$Glottocode %in% glottlog.families$family_id), ]
bdproto.in.glottolog
```

    ## # A tibble: 38 x 1
    ##    Glottocode
    ##    <chr>     
    ##  1 afro1255  
    ##  2 araw1281  
    ##  3 atha1245  
    ##  4 aust1307  
    ##  5 chib1249  
    ##  6 chim1311  
    ##  7 chuk1271  
    ##  8 drav1251  
    ##  9 eski1264  
    ## 10 guah1252  
    ## # ... with 28 more rows

``` r
# How many segments do the proto-languages have?
inventories.counts <- inventories %>% select(BdprotoID, LanguageName) %>% group_by(BdprotoID, LanguageName) %>% summarize(segments=n()) %>% arrange(desc(segments))
inventories.counts
```

    ## # A tibble: 137 x 3
    ## # Groups:   BdprotoID [137]
    ##    BdprotoID LanguageName          segments
    ##        <int> <chr>                    <int>
    ##  1      1003 PROTO-LAKKIA                66
    ##  2        31 Old South Arabic            64
    ##  3        18 Ancient North Arabian       62
    ##  4         6 Proto-Tai                   60
    ##  5        14 Proto-Dené–Caucasian        55
    ##  6         1 Proto-Berber                50
    ##  7      1061 AFRO-ASIATIC                50
    ##  8      1062 CUSHITIC                    50
    ##  9      1067 TAI                         49
    ## 10      1109 KERESAN                     49
    ## # ... with 127 more rows
…
